BROWN-FORMAN INC <BFD> 4TH QTR NET

Shr one dlr vs 73 cts 

Net 12.6 mln vs 15.8 mln 

Revs 337.3 mln vs 315.2 mln 

Nine mths 

Shr 3.07 dlrs vs 3.08 dlrs 

Net 66 mln vs 66.2 mln 

Revs 1.59 billion vs 997.1 mln 

Reuter 
